<?xml version="1.0" encoding="utf-8"?>
<!DOCTYPE svg PUBLIC "-//W3C//DTD SVG 1.1//EN" "http://www.w3.org/Graphics/SVG/1.1/DTD/svg11.dtd">
<svg width="630px" height="315px" viewBox="-256 -256 512 256" xmlns="http://www.w3.org/2000/svg" version="1.1" xmlns:xlink="http://www.w3.org/1999/xlink">
  <g id="rays">
    <path id="ray" d="M0,0 -69,-500 69,-500 z" />
    <use xlink:href="#ray" transform="rotate(30)"/>
    <use xlink:href="#ray" transform="rotate(60)"/>
    <use xlink:href="#ray" transform="rotate(90)"/>
    <use xlink:href="#ray" transform="rotate(-30)"/>
    <use xlink:href="#ray" transform="rotate(-60)"/>
    <use xlink:href="#ray" transform="rotate(-90)"/>
  </g>
</svg>
